{"failedCount":0,"prefixedPath":"classpath:features\/api\/users.feature","packageQualifiedName":"features.api.users","loopIndex":-1,"relativePath":"features\/api\/users.feature","scenarioResults":[{"sectionIndex":0,"stepResults":[{"result":{"nanos":389237700,"startTime":1782390828876,"endTime":1782390829265,"millis":389.2377,"status":"passed"},"step":{"line":5,"prefix":"*","index":0,"text":"def result = call read('classpath:features\/api\/login.feature')"},"callResults":[{"failedCount":0,"prefixedPath":"classpath:features\/api\/login.feature","packageQualifiedName":"features.api.login","loopIndex":-1,"relativePath":"features\/api\/login.feature","scenarioResults":[{"sectionIndex":0,"stepResults":[{"result":{"nanos":166500,"startTime":1782390828883,"endTime":1782390828883,"millis":0.1665,"status":"passed"},"step":{"line":5,"prefix":"Given","index":0,"text":"url 'https:\/\/api.practicesoftwaretesting.com\/users\/login'"}},{"result":{"nanos":322300,"startTime":1782390828885,"endTime":1782390828885,"millis":0.3223,"status":"passed"},"step":{"endLine":12,"line":6,"prefix":"And","docString":"{\n  \"email\": \"customer@practicesoftwaretesting.com\",\n  \"password\": \"welcome01\"\n}","index":1,"text":"request"}},{"result":{"nanos":380586000,"startTime":1782390828885,"endTime":1782390829266,"millis":380.586,"status":"passed"},"step":{"line":13,"prefix":"When","index":2,"text":"method POST"},"stepLog":"08:33:48.887 request:\n1 > POST https:\/\/api.practicesoftwaretesting.com\/users\/login\n1 > Content-Type: application\/json; charset=UTF-8\n1 > Content-Length: 71\n1 > Host: api.practicesoftwaretesting.com\n1 > Connection: Keep-Alive\n1 > User-Agent: Apache-HttpClient\/4.5.14 (Java\/21.0.8)\n1 > Accept-Encoding: gzip,deflate\n{\"email\":\"customer@practicesoftwaretesting.com\",\"password\":\"welcome01\"}\n\n08:33:49.265 response time in milliseconds: 377\n1 < 200\n1 < Date: Thu, 25 Jun 2026 12:34:12 GMT\n1 < Server: Apache\/2.4.52 (Ubuntu)\n1 < Cache-Control: no-cache, private\n1 < Access-Control-Allow-Origin: *\n1 < Access-Control-Expose-Headers: Content-Disposition\n1 < Upgrade: h2\n1 < Connection: Upgrade, close\n1 < Vary: Accept-Encoding\n1 < Content-Type: application\/json\n{\"access_token\":\"eyJ0eXAiOiJKV1QiLCJhbGciOiJIUzI1NiJ9.eyJpc3MiOiJodHRwczovL2FwaS5wcmFjdGljZXNvZnR3YXJldGVzdGluZy5jb20vdXNlcnMvbG9naW4iLCJpYXQiOjE3ODIzOTA4NTIsImV4cCI6MTc4MjM5MTE1MiwibmJmIjoxNzgyMzkwODUyLCJqdGkiOiJvQXNPQjFDdWpWY0VGa2Y4Iiwic3ViIjoiMDFLVlpBRTJDWDA1QkI1MDQ5N1daRUpCNVciLCJwcnYiOiIyM2JkNWM4OTQ5ZjYwMGFkYjM5ZTcwMWM0MDA4NzJkYjdhNTk3NmY3Iiwicm9sZSI6InVzZXIifQ.C9VQMRLY5hMD6U7aC7k8tsI6Q8AJI1cLDOAMLYhW9As\",\"token_type\":\"bearer\",\"expires_in\":300}\n\n"},{"result":{"nanos":11400,"startTime":1782390829266,"endTime":1782390829266,"millis":0.0114,"status":"passed"},"step":{"line":14,"prefix":"Then","index":3,"text":"status 200"}},{"result":{"nanos":252600,"startTime":1782390829266,"endTime":1782390829266,"millis":0.2526,"status":"passed"},"step":{"line":16,"prefix":"*","index":4,"text":"def token = response.access_token"}}],"executorName":"main","line":3,"name":"Get token","description":"","durationMillis":381.3388,"startTime":1782390828883,"failed":false,"refId":"[1:3]","endTime":1782390829266,"exampleIndex":-1}],"callDepth":1,"name":"Auth helper","description":"","resultDate":"2026-06-25 08:33:49 AM","durationMillis":381.3388,"passedCount":1}]},{"result":{"nanos":265900,"startTime":1782390829266,"endTime":1782390829266,"millis":0.2659,"status":"passed"},"step":{"line":6,"prefix":"*","index":1,"text":"def token = result.token"}},{"result":{"nanos":428100,"startTime":1782390829266,"endTime":1782390829266,"millis":0.4281,"status":"passed"},"step":{"line":8,"prefix":"Given","index":2,"text":"url 'https:\/\/api.practicesoftwaretesting.com\/products'"}},{"result":{"nanos":1084200,"startTime":1782390829267,"endTime":1782390829268,"millis":1.0842,"status":"passed"},"step":{"line":9,"prefix":"And","index":3,"text":"header Authorization = 'Bearer ' + token"}},{"result":{"nanos":456551000,"startTime":1782390829268,"endTime":1782390829725,"millis":456.551,"status":"passed"},"step":{"line":10,"prefix":"When","index":4,"text":"method GET"},"stepLog":"08:33:49.269 request:\n1 > GET https:\/\/api.practicesoftwaretesting.com\/products\n1 > Authorization: Bearer eyJ0eXAiOiJKV1QiLCJhbGciOiJIUzI1NiJ9.eyJpc3MiOiJodHRwczovL2FwaS5wcmFjdGljZXNvZnR3YXJldGVzdGluZy5jb20vdXNlcnMvbG9naW4iLCJpYXQiOjE3ODIzOTA4NTIsImV4cCI6MTc4MjM5MTE1MiwibmJmIjoxNzgyMzkwODUyLCJqdGkiOiJvQXNPQjFDdWpWY0VGa2Y4Iiwic3ViIjoiMDFLVlpBRTJDWDA1QkI1MDQ5N1daRUpCNVciLCJwcnYiOiIyM2JkNWM4OTQ5ZjYwMGFkYjM5ZTcwMWM0MDA4NzJkYjdhNTk3NmY3Iiwicm9sZSI6InVzZXIifQ.C9VQMRLY5hMD6U7aC7k8tsI6Q8AJI1cLDOAMLYhW9As\n1 > Host: api.practicesoftwaretesting.com\n1 > Connection: Keep-Alive\n1 > User-Agent: Apache-HttpClient\/4.5.14 (Java\/21.0.8)\n1 > Accept-Encoding: gzip,deflate\n\n\n08:33:49.723 response time in milliseconds: 453\n1 < 200\n1 < Date: Thu, 25 Jun 2026 12:34:12 GMT\n1 < Server: Apache\/2.4.52 (Ubuntu)\n1 < Cache-Control: max-age=120, public\n1 < Access-Control-Allow-Origin: *\n1 < Access-Control-Expose-Headers: Content-Disposition\n1 < Vary: Authorization,Accept-Encoding\n1 < Upgrade: h2\n1 < Connection: Upgrade, close\n1 < ETag: \"e18f909871df38993082030b3d340b23-gzip\"\n1 < Content-Type: application\/json\n{\"current_page\":1,\"data\":[{\"id\":\"01KVZAE2P5KV8E654DEZZEZTXG\",\"name\":\"Combination Pliers\",\"description\":\"Versatile combination pliers designed for gripping, bending, and cutting wire with ease. Featuring chrome vanadium steel construction with induction-hardened cutting edges, these pliers deliver excellent grip and leverage for a wide range of tasks. The precision-machined jaws combine flat gripping surfaces with a pipe-grip section and integrated wire cutter for true multi-purpose functionality. Ergonomic bi-component handles reduce hand fatigue during extended use and provide a secure hold even with oily or gloved hands. The joint is precisely fitted to eliminate play and ensure smooth operation over thousands of cycles. Ideal for electricians, mechanics, and DIY enthusiasts tackling everyday projects around the workshop or job site.\",\"price\":14.15,\"is_location_offer\":false,\"is_rental\":false,\"co2_rating\":\"D\",\"in_stock\":true,\"is_eco_friendly\":false,\"product_image\":{\"id\":\"01KVZAE2MVV9D3AWTZ370ZE0W7\",\"by_name\":\"Helinton Fantin\",\"by_url\":\"https:\\\/\\\/unsplash.com\\\/@fantin\",\"source_name\":\"Unsplash\",\"source_url\":\"https:\\\/\\\/unsplash.com\\\/photos\\\/W8BNwvOvW4M\",\"file_name\":\"pliers01.avif\",\"title\":\"Combination pliers\"},\"category\":{\"id\":\"01KVZAE2MDQ5NYJ1CT1W5AY6TD\",\"name\":\"Pliers\",\"slug\":\"pliers\"},\"brand\":{\"id\":\"01KVZAE29W0DNH9JMBHB9YQKXH\",\"name\":\"ForgeFlex Tools\"}},{\"id\":\"01KVZAE2P8HD5XVV6PNE9AY0MY\",\"name\":\"Pliers\",\"description\":\"Reliable general-purpose pliers crafted from drop-forged carbon steel for long-lasting durability in demanding working conditions. The serrated jaws provide a firm grip on a variety of materials including wire, nails, small fasteners, and irregularly shaped objects. Comfortable rubber-coated handles absorb vibration and reduce hand fatigue during extended use, while the non-slip surface ensures confident handling. The precision pivot joint maintains alignment under load, delivering smooth, controlled jaw action with every squeeze. Heat-treated steel construction resists wear and deformation even under heavy use. A must-have foundational tool for any workshop, equally suited for professional tradespeople and home repair projects.\",\"price\":12.01,\"is_location_offer\":false,\"is_rental\":false,\"co2_rating\":\"D\",\"in_stock\":true,\"is_eco_friendly\":false,\"product_image\":{\"id\":\"01KVZAE2MVV9D3AWTZ370ZE0W8\",\"by_name\":\"Everyday basics\",\"by_url\":\"https:\\\/\\\/unsplash.com\\\/@zanardi\",\"source_name\":\"Unsplash\",\"source_url\":\"https:\\\/\\\/unsplash.com\\\/photos\\\/I8eTuMmxIfo\",\"file_name\":\"pliers02.avif\",\"title\":\"Pliers\"},\"category\":{\"id\":\"01KVZAE2MDQ5NYJ1CT1W5AY6TD\",\"name\":\"Pliers\",\"slug\":\"pliers\"},\"brand\":{\"id\":\"01KVZAE29W0DNH9JMBHB9YQKXH\",\"name\":\"ForgeFlex Tools\"}},{\"id\":\"01KVZAE2PBG7VVTKA3BF9S273Q\",\"name\":\"Bolt Cutters\",\"description\":\"Heavy-duty bolt cutters engineered to slice through hardened bolts, chains, padlocks, and wire fencing with minimal effort. The compound leverage mechanism multiplies your cutting force by a factor of 30, enabling clean cuts through materials up to 10mm in diameter. Hardened alloy steel blades are precisely ground and heat-treated to maintain a sharp edge through years of repeated use on tough materials. Ergonomic rubber grips and the generous 750mm handle length provide excellent control, leverage, and reach during overhead or awkward-angle cuts. An adjustable blade tension screw lets you fine-tune the jaw alignment for optimal cutting performance. Built for demolition crews, locksmiths, fencing contractors, and maintenance professionals who need reliable cutting power day after day.\",\"price\":48.41,\"is_location_offer\":true,\"is_rental\":false,\"co2_rating\":\"D\",\"in_stock\":true,\"is_eco_friendly\":false,\"product_image\":{\"id\":\"01KVZAE2MVV9D3AWTZ370ZE0W9\",\"by_name\":\"Michael Dziedzic\",\"by_url\":\"https:\\\/\\\/unsplash.com\\\/@lazycreekimages\",\"source_name\":\"Unsplash\",\"source_url\":\"https:\\\/\\\/unsplash.com\\\/photos\\\/pM9pkc9J918\",\"file_name\":\"pliers03.avif\",\"title\":\"Bolt cutters\"},\"category\":{\"id\":\"01KVZAE2MDQ5NYJ1CT1W5AY6TD\",\"name\":\"Pliers\",\"slug\":\"pliers\"},\"brand\":{\"id\":\"01KVZAE29W0DNH9JMBHB9YQKXJ\",\"name\":\"MightyCraft Hardware\"}},{\"id\":\"01KVZAE2PDKJ2WZKDRHV65YAW4\",\"name\":\"Long Nose Pliers\",\"description\":\"Precision long nose pliers with narrow tapered jaws designed for reaching into tight, confined spaces and bending fine wire with accuracy. Made from chrome vanadium steel with induction-hardened cutting edges that cleanly sever copper, brass, and steel wire without crushing or fraying. The slim jaw profile tapers to a fine point, making these pliers indispensable for electrical terminal work, jewelry making, and intricate mechanical repairs. Bi-component comfort grips minimize hand strain during detailed tasks requiring a steady hand and controlled pressure. The leaf-spring joint returns the handles to the open position automatically, speeding up repetitive tasks. A must-have precision tool trusted by electricians, electronics technicians, and hobbyists worldwide.\",\"price\":14.24,\"is_location_offer\":false,\"is_rental\":false,\"co2_rating\":\"D\",\"in_stock\":false,\"is_eco_friendly\":false,\"product_image\":{\"id\":\"01KVZAE2MVV9D3AWTZ370ZE0WA\",\"by_name\":\"Brett Jordan\",\"by_url\":\"https:\\\/\\\/unsplash.com\\\/@brett_jordan\",\"source_name\":\"Unsplash\",\"source_url\":\"https:\\\/\\\/unsplash.com\\\/photos\\\/GamuDTVm02g\",\"file_name\":\"pliers04.avif\",\"title\":\"Long nose pliers\"},\"category\":{\"id\":\"01KVZAE2MDQ5NYJ1CT1W5AY6TD\",\"name\":\"Pliers\",\"slug\":\"pliers\"},\"brand\":{\"id\":\"01KVZAE29W0DNH9JMBHB9YQKXJ\",\"name\":\"MightyCraft Hardware\"}},{\"id\":\"01KVZAE2PJ0F87TY032P9T36KJ\",\"name\":\"Slip Joint Pliers\",\"description\":\"Adjustable slip joint pliers that feature a two-position pivot mechanism for switching between regular and wide jaw openings to accommodate different fastener sizes. The PVC-coated handles offer a comfortable, non-slip grip while the precisely machined jaws securely grasp round, flat, and hexagonal objects without slipping. Constructed from durable drop-forged carbon steel that has been heat-treated to withstand heavy daily use in professional environments. The curved jaw section grips pipes and cylindrical objects, while the flat front surface handles nuts, bolts, and sheet materials. A wire cutter integrated near the pivot handles light cutting tasks without reaching for a separate tool. Perfect for plumbing, automotive, HVAC, and general maintenance work where a single versatile gripping tool saves time.\",\"price\":9.17,\"is_location_offer\":false,\"is_rental\":false,\"co2_rating\":\"D\",\"in_stock\":true,\"is_eco_friendly\":false,\"product_image\":{\"id\":\"01KVZAE2MVV9D3AWTZ370ZE0WB\",\"by_name\":\"Yasin Hasan\",\"by_url\":\"https:\\\/\\\/unsplash.com\\\/@yasin\",\"source_name\":\"Unsplash\",\"source_url\":\"https:\\\/\\\/unsplash.com\\\/photos\\\/dwlxTSpfKXg\",\"file_name\":\"pliers05.avif\",\"title\":\"Slip joint pliers\"},\"category\":{\"id\":\"01KVZAE2MDQ5NYJ1CT1W5AY6TD\",\"name\":\"Pliers\",\"slug\":\"pliers\"},\"brand\":{\"id\":\"01KVZAE29W0DNH9JMBHB9YQKXJ\",\"name\":\"MightyCraft Hardware\"}},{\"id\":\"01KVZAE2PNERJJ2MG1Q100MW20\",\"name\":\"Claw Hammer with Shock Reduction Grip\",\"description\":\"Ergonomic claw hammer featuring an advanced shock reduction grip system that absorbs up to 70% of impact vibrations, protecting your wrist, elbow, and shoulder during prolonged nailing sessions. The 450g carbon steel head is precision-balanced and heat-treated for maximum hardness, ensuring accurate nail driving with minimal effort on every swing. The curved claw design effortlessly removes nails without damaging surrounding wood surfaces, making it equally useful for construction and renovation work. A fiberglass-reinforced handle combines lightweight strength with exceptional durability that far outlasts traditional wooden handles. The overmolded soft-grip zone conforms to your hand shape for a custom-feeling, fatigue-free hold throughout long working days. Recommended for professional framing, carpentry, and renovation projects where operator comfort matters as much as striking performance.\",\"price\":13.41,\"is_location_offer\":true,\"is_rental\":false,\"co2_rating\":\"D\",\"in_stock\":true,\"is_eco_friendly\":false,\"product_image\":{\"id\":\"01KVZAE2MVV9D3AWTZ370ZE0WC\",\"by_name\":\"iMattSmart\",\"by_url\":\"https:\\\/\\\/unsplash.com\\\/@imattsmart\",\"source_name\":\"Unsplash\",\"source_url\":\"https:\\\/\\\/unsplash.com\\\/photos\\\/jaLaLQdkBOE\",\"file_name\":\"hammer01.avif\",\"title\":\"Claw Hammer\"},\"category\":{\"id\":\"01KVZAE2MDQ5NYJ1CT1W5AY6T9\",\"name\":\"Hammer\",\"slug\":\"hammer\"},\"brand\":{\"id\":\"01KVZAE29W0DNH9JMBHB9YQKXH\",\"name\":\"ForgeFlex Tools\"}},{\"id\":\"01KVZAE2PQWSG4XBYB9VT899WV\",\"name\":\"Hammer\",\"description\":\"A dependable standard claw hammer suitable for driving and removing nails in everyday construction, carpentry, and home improvement projects. The 350g carbon steel head is drop-forged and heat-treated for maximum hardness, then fitted to a traditional wooden handle that provides natural shock absorption with each strike. Well-balanced weight distribution between the head and handle ensures accurate strikes with minimal wrist effort, reducing fatigue during repetitive nailing tasks. The polished face resists rust and provides a smooth surface that drives nails cleanly without leaving marks on finish materials. A gently curved claw provides reliable nail extraction leverage without excessive force. This versatile hammer belongs in every toolbox, from professional carpentry workshops to home garages and apartment maintenance kits.\",\"price\":12.58,\"is_location_offer\":false,\"is_rental\":false,\"co2_rating\":\"D\",\"in_stock\":true,\"is_eco_friendly\":false,\"product_image\":{\"id\":\"01KVZAE2MVV9D3AWTZ370ZE0WD\",\"by_name\":\"Jozsef Hocza\",\"by_url\":\"https:\\\/\\\/unsplash.com\\\/@hocza\",\"source_name\":\"Unsplash\",\"source_url\":\"https:\\\/\\\/unsplash.com\\\/photos\\\/D3nouOYbALc\",\"file_name\":\"hammer02.avif\",\"title\":\"Hammer\"},\"category\":{\"id\":\"01KVZAE2MDQ5NYJ1CT1W5AY6T9\",\"name\":\"Hammer\",\"slug\":\"hammer\"},\"brand\":{\"id\":\"01KVZAE29W0DNH9JMBHB9YQKXH\",\"name\":\"ForgeFlex Tools\"}},{\"id\":\"01KVZAE2PTZNRKM83FA5S8HB5B\",\"name\":\"Claw Hammer\",\"description\":\"Traditional claw hammer with a polished carbon steel head engineered for driving and removing nails with precision and confidence. The rubber-wrapped handle provides a secure, comfortable grip even in wet, dusty, or cold conditions where bare metal or wood handles would slip. At 500g, it offers the ideal balance between striking power and maneuverability for general carpentry, framing, and construction tasks. The curved claw design allows for smooth nail extraction without gouging or marring wood surfaces, protecting your finished work. The head-to-handle connection uses an epoxy-bonded wedge system that prevents loosening over time. A reliable, no-nonsense tool that professional carpenters and weekend builders alike reach for every day.\",\"price\":11.48,\"is_location_offer\":true,\"is_rental\":false,\"co2_rating\":\"D\",\"in_stock\":true,\"is_eco_friendly\":false,\"product_image\":{\"id\":\"01KVZAE2MVV9D3AWTZ370ZE0WE\",\"by_name\":\"Andrew George\",\"by_url\":\"https:\\\/\\\/unsplash.com\\\/@andrewjoegeorge\",\"source_name\":\"Unsplash\",\"source_url\":\"https:\\\/\\\/unsplash.com\\\/photos\\\/YU2mCvXR0wA\",\"file_name\":\"hammer03.avif\",\"title\":\"Claw Hammer\"},\"category\":{\"id\":\"01KVZAE2MDQ5NYJ1CT1W5AY6T9\",\"name\":\"Hammer\",\"slug\":\"hammer\"},\"brand\":{\"id\":\"01KVZAE29W0DNH9JMBHB9YQKXJ\",\"name\":\"MightyCraft Hardware\"}},{\"id\":\"01KVZAE2PXWS46CDQJK2B1N4FF\",\"name\":\"Thor Hammer\",\"description\":\"The legendary Thor Hammer combines premium craftsmanship with raw striking power in a tool that is truly built to last generations. Forged from Uru metal with a hand-wrapped leather grip, this extraordinary 5kg masterpiece delivers unmatched impact force for the most demanding demolition, forging, and heavy construction tasks. The perfectly balanced oversized head ensures every swing transfers maximum energy to the target, while the enlarged striking face covers more surface area than any conventional hammer. Despite its impressive mass, the ergonomic handle design and precise weight distribution allow for surprisingly controlled, accurate swings. This is not merely a tool but a statement piece for those who accept nothing less than the absolute best in their workshop. Comes with a lifetime warranty because true legends never fade. Please note: only one Thor Hammer is permitted per customer.\",\"price\":11.14,\"is_location_offer\":false,\"is_rental\":false,\"co2_rating\":\"D\",\"in_stock\":true,\"is_eco_friendly\":false,\"product_image\":{\"id\":\"01KVZAE2MVV9D3AWTZ370ZE0WF\",\"by_name\":\"ANIRUDH\",\"by_url\":\"https:\\\/\\\/unsplash.com\\\/@lanirudhreddy\",\"source_name\":\"Unsplash\",\"source_url\":\"https:\\\/\\\/unsplash.com\\\/photos\\\/3esjG-nlgyk\",\"file_name\":\"hammer04.avif\",\"title\":\"Hammer\"},\"category\":{\"id\":\"01KVZAE2MDQ5NYJ1CT1W5AY6T9\",\"name\":\"Hammer\",\"slug\":\"hammer\"},\"brand\":{\"id\":\"01KVZAE29W0DNH9JMBHB9YQKXH\",\"name\":\"ForgeFlex Tools\"}}],\"from\":1,\"last_page\":6,\"per_page\":9,\"to\":9,\"total\":50}\n\n"},{"result":{"nanos":11400,"startTime":1782390829724,"endTime":1782390829724,"millis":0.0114,"status":"passed"},"step":{"line":11,"prefix":"Then","index":5,"text":"status 200"}}],"executorName":"main","line":3,"name":"Get users with token","description":"","durationMillis":847.5783,"startTime":1782390828876,"failed":false,"refId":"[1:3]","endTime":1782390829724,"exampleIndex":-1}],"callDepth":0,"name":"Users API with auth","description":"","resultDate":"2026-06-25 08:33:49 AM","durationMillis":847.5783,"passedCount":1}